<svg xmlns="http://www.w3.org/2000/svg" width="123.406" height="119.87" viewBox="0 0 123.406 119.87">
  <metadata><?xpacket begin="﻿" id="W5M0MpCehiHzreSzNTczkc9d"?>
<x:xmpmeta xmlns:x="adobe:ns:meta/" x:xmptk="Adobe XMP Core 5.6-c142 79.160924, 2017/07/13-01:06:39        ">
   <rdf:RDF xmlns:rdf="http://www.w3.org/1999/02/22-rdf-syntax-ns#">
      <rdf:Description rdf:about=""/>
   </rdf:RDF>
</x:xmpmeta>
                                                                                                    
                                                                                                    
                                                                                                    
                                                                                                    
                                                                                                    
                                                                                                    
                                                                                                    
                                                                                                    
                                                                                                    
                                                                                                    
                                                                                                    
                                                                                                    
                                                                                                    
                                                                                                    
                                                                                                    
                                                                                                    
                                                                                                    
                                                                                                    
                                                                                                    
                                                                                                    
                           
<?xpacket end="w"?></metadata>
<defs>
    <style>
      .cls-1 {
        fill: #8be5c3;
        fill-rule: evenodd;
      }
    </style>
  </defs>
  <path id="_11" data-name="11" class="cls-1" d="M157.488,6093.43c-4.345,4.8-9.008,9.57-15.772,5.22-4.883-3.14-2.61-10.39-1.149-14.73a116.264,116.264,0,0,1,9.417-20.51c-0.582,1.01-2.74,1.38-3.7,2.07-4.968,3.57-8.125,9.79-12.17,14.3-3.938,4.39-8.412,8.87-13.854,11.34a19.216,19.216,0,0,1-9.7,1.61,26.613,26.613,0,0,1-10.854-4.18c-2.814-1.82-4.2-4.27-6.469-6.53-3.207-3.18-3.316-7.02-3.615-11.29-0.418-5.93.087-11.75,3.075-17.03,2.876-5.08,6.874-11.1,12.608-13.18a23.427,23.427,0,0,1,11.306-.82c3.991,0.76,7.835,3.02,12.007,2.31-2.221-2.64-6.336-2.93-9.506-3.33-4.164-.54-8.3-1.33-12.394-2.26-4.2-.96-9.4-1.61-12.761-4.59-4.962-4.41.269-10.77-.237-15.93a94,94,0,0,1,.349-21.14c0.266-2.26-.748-4.19-0.683-6.43,0.088-2.88,1.024-7.08,4.422-7.67,3.8-.66,8.244.65,11.71,2.12a48.673,48.673,0,0,1,10.114,5.86c12.875,9.6,23.383,23.16,31.449,36.95a14.547,14.547,0,0,1,1.749,4.4c0.43,1.82,1.728,13.97,4.009,13.95,1.119-.01,2.032-3.83,2.032-4.7,0-1.43-.744-2.97-0.856-4.37s-0.033-2.47-.033-3.9c0-2.14,1.622-4.37,2.923-6.01,0.5-.63,3.035-4.07,3.989-3.1,0.718,0.72-1.294,1.56-1.708,1.8-4.109,2.41-6.44,10.93-3.069,14.79l4.059,1.01c0.6,0.15,5.177-4.93,5.976-5.64,2.287-2.03,5.113-4.52,8.316-4.78a6.173,6.173,0,0,1-1.728,1.37,32.29,32.29,0,0,0-5.443,3.64c-2.183,1.81-4.29,3.68-6.324,5.64a7.548,7.548,0,0,1,.415,1.44,4.491,4.491,0,0,1-.582,1.59c-0.375.91-1.093,2.18,0.086,2.82,1.882,1.04,4.681-2.81,6-3.77a292.3,292.3,0,0,1,29.922-19.03c3.085-1.7,14.175-7.93,11.776.45-0.88,3.07-2.562,5.91-3.988,8.75-1.319,2.63-3.66,4.45-5.593,6.59-2.7,2.99-4.753,6.64-8.21,8.87-1.808,1.16-3.882,1.9-5.606,3.2-1.821,1.37-2.947,3.35-4.467,5.01a38.63,38.63,0,0,0-4.2,5.71c-2.326,3.71-4.525,9.86-8.966,11.56-3.983,1.53-7.5-5.79-10.131-7.84-1.857-1.45-5.027-2.41-7.289-1.11,1.748-1.01,4.267,2.03,5.32,2.97,3.006,2.66,7.1,5.77,7.954,9.93,0.919,4.52-2.672,8.83-5.544,11.91" transform="translate(-89.5 -5980.47)"/>
</svg>
