<svg id="_3" data-name="3" xmlns="http://www.w3.org/2000/svg" width="112.094" height="255.9" viewBox="0 0 112.094 255.9">
  <metadata><?xpacket begin="﻿" id="W5M0MpCehiHzreSzNTczkc9d"?>
<x:xmpmeta xmlns:x="adobe:ns:meta/" x:xmptk="Adobe XMP Core 5.6-c142 79.160924, 2017/07/13-01:06:39        ">
   <rdf:RDF xmlns:rdf="http://www.w3.org/1999/02/22-rdf-syntax-ns#">
      <rdf:Description rdf:about=""/>
   </rdf:RDF>
</x:xmpmeta>
                                                                                                    
                                                                                                    
                                                                                                    
                                                                                                    
                                                                                                    
                                                                                                    
                                                                                                    
                                                                                                    
                                                                                                    
                                                                                                    
                                                                                                    
                                                                                                    
                                                                                                    
                                                                                                    
                                                                                                    
                                                                                                    
                                                                                                    
                                                                                                    
                                                                                                    
                                                                                                    
                           
<?xpacket end="w"?></metadata>
<defs>
    <style>
      .cls-1 {
        fill: #158d7b;
      }

      .cls-1, .cls-2 {
        fill-rule: evenodd;
      }

      .cls-2 {
        fill: #dda576;
      }
    </style>
  </defs>
  <path id="_3-bot" data-name="3-bot" class="cls-1" d="M-169.595,1831.63c0.871,0.51,1.791.95,2.686,1.43a5.743,5.743,0,0,0,3.415,1.78c29.65,14.16,70.085,13.66,101.072,8.33C-23,1836.38,12.315,1812.28,41,1785.45c39.511-36.95,99-118.73,56.372-172.04-17.747-22.19-51.182-24.41-76.962-21.9-38.556,3.76-74.931,19.96-105.853,42.84-58.026,42.95-95.559,119.82-83.527,192.3A2.764,2.764,0,0,0-169.595,1831.63Z" transform="translate(0 -1590.69)"/>
  <path id="_3-up" data-name="3-up" class="cls-2" d="M-173.44,1839.91a363.2,363.2,0,0,0,57.933-26.13c12.425,3.06,21.719,10.36,32.421,18.46,0.59,0.44,1.182-.36.927-0.9-4.125-8.71-15.717-18.05-27.084-21.1q12.586-7.215,24.81-15.14a45.486,45.486,0,0,1,8.867.42c6.084,1.19,11.541,4.81,16.267,8.63,8.184,6.62,13.734,18.14,22.979,23.04a0.3,0.3,0,0,0,.444-0.33c-2.584-10.95-14.916-23.3-23.619-29.82a50.469,50.469,0,0,0-15.759-8.01q11.732-7.89,23.123-16.21c3.571,1.29,7.348,1.89,10.976,3.6a97.972,97.972,0,0,1,14.136,8.51c11.2,7.78,19.906,18.22,29.622,27.63a0.272,0.272,0,0,0,.431-0.32c-6.379-13.48-17.717-24.72-29.082-34.11-4.643-3.85-11.573-9.08-18.478-10.9,9.34-6.95,18.5-14.01,27.512-21.09,0.3-.23.595-0.48,0.887-0.71a51.665,51.665,0,0,0,6.648,2.59c7.16,2.55,13.31,7.39,18.71,12.61,8.949,8.65,15.225,19.56,24.291,28.13a0.508,0.508,0,0,0,.794-0.61,116.512,116.512,0,0,0-23.046-33.64c-5.173-5.15-13.544-11.66-21.718-13.63,7.74-6.17,15.5-12.51,23.216-19.12,3.062,2.4,7.035,3.11,10.641,4.87,5.859,2.86,11.051,7.14,15.915,11.43,8.457,7.44,15.547,16.32,23.741,24.03a0.232,0.232,0,0,0,.372-0.27c-5.54-12.38-14.736-22.52-24.916-31.32-4.98-4.29-13.827-11.74-21.577-12.43,7.85-6.85,15.629-13.88,23.138-21.22a2.546,2.546,0,0,0,.336-0.32c0.093-.09.182-0.19,0.285-0.29,10.438,4.18,19.473,7.54,28.6,14.99,7.907,6.45,8.649,10.91,16.339,17.5a0.17,0.17,0,0,0,.286-0.16c-3.328-11.53-8.929-16.98-17.82-24.46-6.008-5.07-14.414-10.97-22.834-12.52,7.4-7.44,14.608-15.04,21.322-23.01a1.978,1.978,0,0,0,.658-0.44,41.38,41.38,0,0,1,8.881,2.44c4.59,2.14,8.687,5.59,12.447,8.92,5.882,5.18,9.021,10.37,15.324,15.03a0.2,0.2,0,0,0,.269-0.28c-5.928-10.49-17.969-29.85-32.679-31.74,4.841-5.97,9.542-12.04,13.8-18.34,6.152,1.51,11.427,2.12,17.065,5.56,5.027,3.06,3.9,4.72,9.072,7.55a0.305,0.305,0,0,0,.416-0.41c-5.173-8.99-12.744-16.02-23.976-16.62a224.506,224.506,0,0,0,12.978-22.5c0.049-.07-0.062-0.13-0.111-0.07-4.509,6.7-9.327,13.22-14.279,19.63-1.9-13.3-8.114-26.94-17.415-36.46a0.468,0.468,0,0,0-.743.55c7.34,12.61,15.121,24.14,15.457,39.27-5.206,6.58-10.677,12.96-16.261,19.25-2.451-23.85-15.627-46.34-33.07-62.52a0.535,0.535,0,0,0-.844.64c13.494,20.79,28.459,40.31,29.715,65.87a2.384,2.384,0,0,0-.474,1.23q-10.4,11.37-21.472,22.12c-0.427-28.35-17.321-65.68-39.662-80.57a0.434,0.434,0,0,0-.592.59c18.7,25.15,33.447,53.31,35.027,85.05-6.933,6.64-14.051,13.06-21.241,19.4A185.7,185.7,0,0,0,.9,1659.59c-5.244-12.26-14.928-33.24-30-35.4a0.1,0.1,0,0,0-.076.17c23.5,25.66,36.029,56.88,38.985,91.83q-12.338,10.68-24.958,20.84c-2.356-34.68-16.194-80.7-46.524-99.53a0.169,0.169,0,0,0-.208.26c26.348,27.53,39.417,65.79,41.1,103.65-8.76,6.88-17.737,13.51-26.817,20.01,3.814-34.63-16.24-69.72-42.133-91.58a0.336,0.336,0,0,0-.48.47c21.73,28.17,42.007,58.26,36.084,95.81-9.012,6.33-18.151,12.46-27.345,18.52,9.069-31.45-7.368-60.09-30.044-82.85-0.209-.21-0.606.06-0.414,0.32,20.789,27.73,34.481,52.49,22.6,87.37a13.144,13.144,0,0,0-2.985,1.92,1.446,1.446,0,0,0-.23.38,270.536,270.536,0,0,1-26.141,13.94c13.233-20.61-2.115-54.54-12.881-72.36a0.17,0.17,0,0,0-.313.12c3.8,12.1,8.922,23.5,11.446,35.99,3.182,15.84-2.022,27.32-7.924,40.79-16.156,7.46-32.392,14.71-47.153,24.5C-178,1836.4-176.6,1841-173.44,1839.91Z" transform="translate(0 -1590.69)"/>
</svg>
